\relax 
\providecommand\hyper@newdestlabel[2]{}
\@nameuse{bbl@beforestart}
\providecommand\HyperFirstAtBeginDocument{\AtBeginDocument}
\HyperFirstAtBeginDocument{\ifx\hyper@anchor\@undefined
\global\let\oldcontentsline\contentsline
\gdef\contentsline#1#2#3#4{\oldcontentsline{#1}{#2}{#3}}
\global\let\oldnewlabel\newlabel
\gdef\newlabel#1#2{\newlabelxx{#1}#2}
\gdef\newlabelxx#1#2#3#4#5#6{\oldnewlabel{#1}{{#2}{#3}}}
\AtEndDocument{\ifx\hyper@anchor\@undefined
\let\contentsline\oldcontentsline
\let\newlabel\oldnewlabel
\fi}
\fi}
\global\let\hyper@last\relax 
\gdef\HyperFirstAtBeginDocument#1{#1}
\providecommand\HyField@AuxAddToFields[1]{}
\providecommand\HyField@AuxAddToCoFields[2]{}
\babel@aux{english}{}
\citation{dataset}
\citation{CNN}
\citation{resnet}
\citation{conformer}
\citation{LSTM}
\citation{GRU}
\citation{LSTM:audio}
\citation{GRU:audio}
\citation{CNN:audio}
\@writefile{toc}{\contentsline {section}{\numberline {1}Introduction}{2}{section.1}\protected@file@percent }
\@writefile{toc}{\contentsline {subsection}{\numberline {1.1}Previous work}{2}{subsection.1.1}\protected@file@percent }
\@writefile{toc}{\contentsline {section}{\numberline {2}Problem specification}{2}{section.2}\protected@file@percent }
\citation{resnet:kaggle}
\@writefile{toc}{\contentsline {subsection}{\numberline {2.1}LRAP metric}{3}{subsection.2.1}\protected@file@percent }
\@writefile{toc}{\contentsline {section}{\numberline {3}Scope}{3}{section.3}\protected@file@percent }
\citation{performer}
\@writefile{toc}{\contentsline {section}{\numberline {4}Methods}{4}{section.4}\protected@file@percent }
\@writefile{toc}{\contentsline {subsection}{\numberline {4.1}Exploratory phase}{4}{subsection.4.1}\protected@file@percent }
\@writefile{toc}{\contentsline {subsection}{\numberline {4.2}Dataset shape and augmentation}{4}{subsection.4.2}\protected@file@percent }
\@writefile{toc}{\contentsline {subsection}{\numberline {4.3}Loss function, metric, optimizer}{4}{subsection.4.3}\protected@file@percent }
\@writefile{toc}{\contentsline {subsection}{\numberline {4.4}Hyper-parameter search}{4}{subsection.4.4}\protected@file@percent }
\@writefile{toc}{\contentsline {subsection}{\numberline {4.5}Model overview}{4}{subsection.4.5}\protected@file@percent }
\@writefile{toc}{\contentsline {subsection}{\numberline {4.6}Model comparison}{4}{subsection.4.6}\protected@file@percent }
\@writefile{toc}{\contentsline {section}{\numberline {5}Models}{5}{section.5}\protected@file@percent }
\@writefile{toc}{\contentsline {subsection}{\numberline {5.1}conv}{5}{subsection.5.1}\protected@file@percent }
\citation{macaron}
\@writefile{toc}{\contentsline {subsection}{\numberline {5.2}attention}{6}{subsection.5.2}\protected@file@percent }
\@writefile{toc}{\contentsline {subsection}{\numberline {5.3}conv\_attention}{7}{subsection.5.3}\protected@file@percent }
\@writefile{toc}{\contentsline {subsection}{\numberline {5.4}resnet50}{7}{subsection.5.4}\protected@file@percent }
\@writefile{toc}{\contentsline {subsection}{\numberline {5.5}conformer}{7}{subsection.5.5}\protected@file@percent }
\@writefile{toc}{\contentsline {section}{\numberline {6}Results}{8}{section.6}\protected@file@percent }
\@writefile{toc}{\contentsline {subsection}{\numberline {6.1}Hyper-parameter search}{8}{subsection.6.1}\protected@file@percent }
\@writefile{toc}{\contentsline {subsection}{\numberline {6.2}Best hyper-parameters}{9}{subsection.6.2}\protected@file@percent }
\@writefile{toc}{\contentsline {subsection}{\numberline {6.3}Best model training}{10}{subsection.6.3}\protected@file@percent }
\@writefile{toc}{\contentsline {subsubsection}{\numberline {6.3.1}conv}{10}{subsubsection.6.3.1}\protected@file@percent }
\@writefile{toc}{\contentsline {subsubsection}{\numberline {6.3.2}attention}{11}{subsubsection.6.3.2}\protected@file@percent }
\@writefile{toc}{\contentsline {subsubsection}{\numberline {6.3.3}conv\_attention}{12}{subsubsection.6.3.3}\protected@file@percent }
\@writefile{toc}{\contentsline {subsubsection}{\numberline {6.3.4}resnet}{13}{subsubsection.6.3.4}\protected@file@percent }
\@writefile{toc}{\contentsline {subsubsection}{\numberline {6.3.5}conformer}{14}{subsubsection.6.3.5}\protected@file@percent }
\citation{receptive-field}
\@writefile{toc}{\contentsline {section}{\numberline {7}Discussion}{15}{section.7}\protected@file@percent }
\@writefile{toc}{\contentsline {subsection}{\numberline {7.1}Hyper-parameters search phase}{15}{subsection.7.1}\protected@file@percent }
\@writefile{toc}{\contentsline {subsubsection}{\numberline {7.1.1}conv}{15}{subsubsection.7.1.1}\protected@file@percent }
\@writefile{toc}{\contentsline {subsubsection}{\numberline {7.1.2}attention}{15}{subsubsection.7.1.2}\protected@file@percent }
\@writefile{toc}{\contentsline {subsubsection}{\numberline {7.1.3}conv\_attention}{15}{subsubsection.7.1.3}\protected@file@percent }
\@writefile{toc}{\contentsline {subsubsection}{\numberline {7.1.4}conformer}{15}{subsubsection.7.1.4}\protected@file@percent }
\citation{mixup}
\citation{receptive-field}
\citation{efficientnet}
\citation{performers-in-conformers}
\@writefile{toc}{\contentsline {subsection}{\numberline {7.2}Best model comparison}{16}{subsection.7.2}\protected@file@percent }
\@writefile{toc}{\contentsline {section}{\numberline {8}Conclusion}{16}{section.8}\protected@file@percent }
\bibstyle{plain}
\bibdata{citations}
\bibcite{dataset}{1}
\bibcite{performer}{2}
\bibcite{GRU}{3}
\bibcite{LSTM}{4}
\bibcite{conformer}{5}
\bibcite{resnet}{6}
\bibcite{CNN:audio}{7}
\bibcite{receptive-field}{8}
\bibcite{CNN}{9}
\bibcite{LSTM:audio}{10}
\bibcite{macaron}{11}
\bibcite{GRU:audio}{12}
\bibcite{efficientnet}{13}
\bibcite{performers-in-conformers}{14}
\bibcite{resnet:kaggle}{15}
\bibcite{mixup}{16}
\gdef\minted@oldcachelist{,
  default-pyg-prefix.pygstyle,
  default.pygstyle,
  CE5BED8191F18C03AC1FF80928C4EACF7C2E7F49E087B8E8E8DF5244CE287E39.pygtex,
  95CDC88D1FAC096F83DED479EA58CD547C2E7F49E087B8E8E8DF5244CE287E39.pygtex,
  E345327DF0176C9A791D2FB75AD94C207C2E7F49E087B8E8E8DF5244CE287E39.pygtex,
  3E16BF733C85E08416205132F21B63C17C2E7F49E087B8E8E8DF5244CE287E39.pygtex}
